DOL API With Julia
…
							res = fetch_data(url, params)

							df = DataFrame(res.data)

						The Resulting DataFrame

							julia> df 
							18676×4 DataFrame
								Row │ case_id  ee_atp_cnt  flsa_violtn_cnt  naic_cd 
									  │ Int64    Int64       Int64            String  
								────┼───────────────────────────────────────────────
									1 │ 1908151        7576             7770  812111
									2 │ 1924005        2749             2749  561730
									3 │ 1907946        1915             2019  722211
								⋮ 	    ⋮              ⋮                ⋮       ⋮
							18674 │ 1939717           0                0  448140
							18675 │ 1939724           0                1  424810
							18676 │ 1939730           0                0  722211
																								18670 rows omitted
…
